<svg width="75" height="18" viewBox="0 0 75 18" fill="none" xmlns="http://www.w3.org/2000/svg">
<path d="M0 16.7614C1.05273 15.3311 2.21782 13.9886 3.48396 12.7471C4.75155 11.4998 6.10312 10.3425 7.52901 9.28356C10.3804 7.16073 13.5057 5.41646 16.7759 4.03361C18.4127 3.3444 20.0849 2.74426 21.7854 2.23577L22.4222 2.04506C22.6344 1.98292 22.8502 1.92792 23.0639 1.86935C23.4884 1.75435 23.9193 1.63292 24.3516 1.53507C25.2134 1.32078 26.0809 1.14007 26.9512 0.970071C28.6926 0.63392 30.4498 0.386939 32.216 0.230077C33.0983 0.150792 33.9849 0.0872229 34.8672 0.0550803C35.0887 0.0457947 35.3101 0.0343652 35.5309 0.0272224L36.1953 0.0150809L36.8597 0.0022222C37.0804 -0.00277775 37.3019 0.0022222 37.5233 0.0022222L38.1877 0.00722268H38.5196L38.8514 0.0193664L39.5151 0.0436516C39.7358 0.0522229 39.9573 0.0565089 40.1781 0.0729373C40.6203 0.100794 41.0625 0.124366 41.504 0.155794L42.8278 0.268649C44.5903 0.445076 46.345 0.710073 48.0835 1.05436C51.563 1.74394 54.9633 2.79178 58.2311 4.18147C61.4908 5.57717 64.6068 7.3243 67.454 9.43999L67.9818 9.84427L68.2458 10.0464L68.3774 10.1471L68.5068 10.2521L69.0226 10.6707L69.2809 10.88C69.3665 10.9514 69.4493 11.0228 69.5335 11.0943C69.8667 11.3864 70.2071 11.6657 70.5297 11.9728L71.0186 12.4221C71.1007 12.4935 71.1792 12.5742 71.2585 12.6521L71.4955 12.885C72.7642 14.1178 73.9359 15.4485 75 16.8649L74.1325 17.6206C72.9389 16.4093 71.6766 15.2688 70.3521 14.2049L70.1045 14.0064C70.0224 13.9399 69.9403 13.8735 69.8547 13.8107L69.3502 13.4264C69.0184 13.165 68.6689 12.9264 68.3278 12.6778C68.2422 12.6164 68.1573 12.5535 68.071 12.4935L67.8092 12.315L67.287 11.9578L67.1568 11.8685L67.0238 11.7835L66.7578 11.6121L66.2257 11.27C63.3715 9.48525 60.3454 7.99718 57.1939 6.82859C54.0498 5.66064 50.8073 4.78301 47.5061 4.20647C45.8583 3.91147 44.1969 3.69647 42.5299 3.5479L41.2783 3.45076C40.8601 3.42433 40.442 3.40505 40.0245 3.37933C39.1882 3.34576 38.3512 3.32362 37.5141 3.32076C37.3019 3.32076 37.0953 3.31362 36.8866 3.32076L36.259 3.33148L35.6314 3.34148L35.0038 3.36719C34.5863 3.38576 34.1675 3.39719 33.7507 3.43076L33.1245 3.47076L32.8111 3.49076C32.7071 3.49719 32.6031 3.50862 32.4991 3.51719C32.0823 3.55576 31.6656 3.58862 31.2495 3.63147L30.0028 3.77433L28.7604 3.9479C28.6564 3.96076 28.5531 3.97647 28.4505 3.99433L28.1406 4.04504L27.5236 4.14647C26.7 4.28933 25.8778 4.44647 25.0613 4.62932C24.8575 4.67575 24.6516 4.71289 24.4493 4.76432L23.8387 4.90718C23.6356 4.95646 23.4311 5.00218 23.2288 5.05503L22.6231 5.21717C21.0078 5.6536 19.4094 6.15574 17.8422 6.74502C14.695 7.91038 11.6789 9.40895 8.84434 11.2157C7.42586 12.1215 6.06212 13.1118 4.76038 14.1814C3.45427 15.2578 2.21579 16.4153 1.05212 17.6471L0 16.7614Z" fill="#4E64E6"/>
</svg>
